…
``` r
# there are 634 tree species in the City of Vancouver

# now to determine the number of neighbourhoods in which each tree species occurs

neighborhoods_per_tree_sp <- vancouver_trees %>%
  group_by(common_name) %>%
  count(neighbourhood_name)

neighborhoods_per_tree_sp
```

    ## # A tibble: 6,141 × 3
    ## # Groups:   common_name [634]
    ##    common_name     neighbourhood_name      n
    ##    <chr>           <chr>               <int>
    ##  1 ACCOLADE CHERRY ARBUTUS-RIDGE           1
    ##  2 ACCOLADE CHERRY DOWNTOWN                6
    ##  3 ACCOLADE CHERRY FAIRVIEW                2
    ##  4 ACCOLADE CHERRY GRANDVIEW-WOODLAND      3
    ##  5 ACCOLADE CHERRY HASTINGS-SUNRISE       30
    ##  6 ACCOLADE CHERRY KERRISDALE              4
    ##  7 ACCOLADE CHERRY KITSILANO               4
    ##  8 ACCOLADE CHERRY SHAUGHNESSY             4
    ##  9 ACCOLADE CHERRY STRATHCONA              1
    ## 10 ACCOLADE CHERRY VICTORIA-FRASERVIEW     3
    ## # ℹ 6,131 more rows
…
three_tree_sp_in_vancouver <- vancouver_trees %>%
  filter(common_name == c("JAPANESE SNOWBELL", "NORWAY MAPLE", "DOUGLAS FIR"))
```

    ## Warning: There was 1 warning in `filter()`.
    ## ℹ In argument: `common_name == c("JAPANESE SNOWBELL", "NORWAY MAPLE", "DOUGLAS
    ##   FIR")`.
    ## Caused by warning in `common_name == c("JAPANESE SNOWBELL", "NORWAY MAPLE", "DOUGLAS FIR")`:
    ## ! longer object length is not a multiple of shorter object length

``` r
three_tree_sp_in_vancouver
```

    ## # A tibble: 2,548 × 20
    ##    tree_id civic_number std_street       genus_name species_name cultivar_name
    ##      <dbl>        <dbl> <chr>            <chr>      <chr>        <chr>        
    ##  1  149658         5208 WINDSOR ST       STYRAX     JAPONICA     <NA>         
    ##  2  155358         1451 WILLIAM ST       ACER       PLATANOIDES  <NA>         
    ##  3  155498         4199 GLADSTONE ST     ACER       PLATANOIDES  <NA>         
    ##  4  155827         2796 ADANAC ST        ACER       PLATANOIDES  <NA>         
    ##  5  157393         1671 W KING EDWARD AV STYRAX     JAPONICA     <NA>         
    ##  6  158114         1610 BALSAM ST        ACER       PLATANOIDES  <NA>         
    ##  7  159009         3989 ANGUS DRIVE      STYRAX     JAPONICA     <NA>         
    ##  8  160040         4362 W 2ND AV         STYRAX     JAPONICA     <NA>         
    ##  9  160106         2280 E 49TH AV        ACER       PLATANOIDES  <NA>         
    ## 10  160900         1466 W 4TH AV         STYRAX     JAPONICA     <NA>         
    ## # ℹ 2,538 more rows
    ## # ℹ 14 more variables: common_name <chr>, assigned <chr>, root_barrier <chr>,
    ## #   plant_area <chr>, on_street_block <dbl>, on_street <chr>,
    ## #   neighbourhood_name <chr>, street_side_name <chr>, height_range_id <dbl>,
    ## #   diameter <dbl>, curb <chr>, date_planted <date>, longitude <dbl>,
    ## #   latitude <dbl>
…
``` r
# getting and ordering from high to low a count of the number of observations per unique common_name and sorting in descending order using dplyr function count() and arrange()

tree_count_by_species <- vancouver_trees %>% 
  count(common_name)
  
as_tibble(tree_count_by_species)
```

    ## # A tibble: 634 × 2
    ##    common_name                   n
    ##    <chr>                     <int>
    ##  1 ACCOLADE CHERRY              60
    ##  2 AKEBONO FLOWERING CHERRY   2384
    ##  3 ALDER SPECIES                16
    ##  4 ALDERLEAFED MOUNTAIN ASH    172
    ##  5 ALIA'S MAGNOLIA               3
    ##  6 ALLEGHENY SERVICEBERRY        6
    ##  7 ALLGOLD EUROPEAN ASH         78
    ##  8 ALMIRA NORWAY MAPLE           9
    ##  9 ALPINE FIR                    1
    ## 10 AMANOGAWA JAPANESE CHERRY    68
    ## # ℹ 624 more rows

``` r
tree_count_by_species_high_to_low <- tree_count_by_species %>%
  arrange(desc(n))

tree_count_by_species_high_to_low
```

    ## # A tibble: 634 × 2
    ##    common_name                     n
    ##    <chr>                       <int>
    ##  1 KWANZAN FLOWERING CHERRY    10529
    ##  2 PISSARD PLUM                 8692
    ##  3 NORWAY MAPLE                 5614
    ##  4 CRIMEAN LINDEN               4427
    ##  5 PYRAMIDAL EUROPEAN HORNBEAM  3409
    ##  6 NIGHT PURPLE LEAF PLUM       3250
    ##  7 RED MAPLE                    2806
    ##  8 KOBUS MAGNOLIA               2688
    ##  9 BOWHALL RED MAPLE            2622
    ## 10 AKEBONO FLOWERING CHERRY     2384
    ## # ℹ 624 more rows
…
min_max_mean_diameter <- vancouver_trees %>% summarize(max = max(diameter), min = min(diameter), mean = mean(diameter))

min_max_mean_diameter
```

    ## # A tibble: 1 × 3
    ##     max   min  mean
    ##   <dbl> <dbl> <dbl>
    ## 1   435     0  11.5

``` r
vancouver_trees
```

    ## # A tibble: 146,611 × 20
    ##    tree_id civic_number std_street    genus_name species_name cultivar_name  
    ##      <dbl>        <dbl> <chr>         <chr>      <chr>        <chr>          
    ##  1  149556          494 W 58TH AV     ULMUS      AMERICANA    BRANDON        
    ##  2  149563          450 W 58TH AV     ZELKOVA    SERRATA      <NA>           
    ##  3  149579         4994 WINDSOR ST    STYRAX     JAPONICA     <NA>           
    ##  4  149590          858 E 39TH AV     FRAXINUS   AMERICANA    AUTUMN APPLAUSE
    ##  5  149604         5032 WINDSOR ST    ACER       CAMPESTRE    <NA>           
    ##  6  149616          585 W 61ST AV     PYRUS      CALLERYANA   CHANTICLEER    
    ##  7  149617         4909 SHERBROOKE ST ACER       PLATANOIDES  COLUMNARE      
    ##  8  149618         4925 SHERBROOKE ST ACER       PLATANOIDES  COLUMNARE      
    ##  9  149619         4969 SHERBROOKE ST ACER       PLATANOIDES  COLUMNARE      
    ## 10  149625          720 E 39TH AV     FRAXINUS   AMERICANA    AUTUMN APPLAUSE
    ## # ℹ 146,601 more rows
    ## # ℹ 14 more variables: common_name <chr>, assigned <chr>, root_barrier <chr>,
    ## #   plant_area <chr>, on_street_block <dbl>, on_street <chr>,
    ## #   neighbourhood_name <chr>, street_side_name <chr>, height_range_id <dbl>,
    ## #   diameter <dbl>, curb <chr>, date_planted <date>, longitude <dbl>,
    ## #   latitude <dbl>
…
vancouver_trees_trunk_thickness <- vancouver_trees %>% 
  mutate(trunk_thickness=cut(diameter, breaks=c(-Inf, 1, 3, 9, 12, 15, Inf), labels=c("Very thin","Thin","Moderately thin", "Moderately thick", "Thick", "Very thick")))

vancouver_trees_trunk_thickness
```

    ## # A tibble: 146,611 × 21
    ##    tree_id civic_number std_street    genus_name species_name cultivar_name  
    ##      <dbl>        <dbl> <chr>         <chr>      <chr>        <chr>          
    ##  1  149556          494 W 58TH AV     ULMUS      AMERICANA    BRANDON        
    ##  2  149563          450 W 58TH AV     ZELKOVA    SERRATA      <NA>           
    ##  3  149579         4994 WINDSOR ST    STYRAX     JAPONICA     <NA>           
    ##  4  149590          858 E 39TH AV     FRAXINUS   AMERICANA    AUTUMN APPLAUSE
    ##  5  149604         5032 WINDSOR ST    ACER       CAMPESTRE    <NA>           
    ##  6  149616          585 W 61ST AV     PYRUS      CALLERYANA   CHANTICLEER    
    ##  7  149617         4909 SHERBROOKE ST ACER       PLATANOIDES  COLUMNARE      
    ##  8  149618         4925 SHERBROOKE ST ACER       PLATANOIDES  COLUMNARE      
    ##  9  149619         4969 SHERBROOKE ST ACER       PLATANOIDES  COLUMNARE      
    ## 10  149625          720 E 39TH AV     FRAXINUS   AMERICANA    AUTUMN APPLAUSE
    ## # ℹ 146,601 more rows
    ## # ℹ 15 more variables: common_name <chr>, assigned <chr>, root_barrier <chr>,
    ## #   plant_area <chr>, on_street_block <dbl>, on_street <chr>,
    ## #   neighbourhood_name <chr>, street_side_name <chr>, height_range_id <dbl>,
    ## #   diameter <dbl>, curb <chr>, date_planted <date>, longitude <dbl>,
    ## #   latitude <dbl>, trunk_thickness <fct>
…
``` r
# there are only 10 trees that have a diameter greater than 100 inches - and these are likely incorrect measurements in some way (wrong unit, etc.). This is made clear by the date planted - some of the largest trees were planted only 20 years ago! This level of growth is completely impossible. I will filter these out of the data set with filter().

vancouver_trees_minus_outliers <- vancouver_trees_trunk_thickness %>% filter(diameter < 100)

vancouver_trees_minus_outliers
```

    ## # A tibble: 146,601 × 21
    ##    tree_id civic_number std_street    genus_name species_name cultivar_name  
    ##      <dbl>        <dbl> <chr>         <chr>      <chr>        <chr>          
    ##  1  149556          494 W 58TH AV     ULMUS      AMERICANA    BRANDON        
    ##  2  149563          450 W 58TH AV     ZELKOVA    SERRATA      <NA>           
    ##  3  149579         4994 WINDSOR ST    STYRAX     JAPONICA     <NA>           
    ##  4  149590          858 E 39TH AV     FRAXINUS   AMERICANA    AUTUMN APPLAUSE
    ##  5  149604         5032 WINDSOR ST    ACER       CAMPESTRE    <NA>           
    ##  6  149616          585 W 61ST AV     PYRUS      CALLERYANA   CHANTICLEER    
    ##  7  149617         4909 SHERBROOKE ST ACER       PLATANOIDES  COLUMNARE      
    ##  8  149618         4925 SHERBROOKE ST ACER       PLATANOIDES  COLUMNARE      
    ##  9  149619         4969 SHERBROOKE ST ACER       PLATANOIDES  COLUMNARE      
    ## 10  149625          720 E 39TH AV     FRAXINUS   AMERICANA    AUTUMN APPLAUSE
    ## # ℹ 146,591 more rows
    ## # ℹ 15 more variables: common_name <chr>, assigned <chr>, root_barrier <chr>,
    ## #   plant_area <chr>, on_street_block <dbl>, on_street <chr>,
    ## #   neighbourhood_name <chr>, street_side_name <chr>, height_range_id <dbl>,
    ## #   diameter <dbl>, curb <chr>, date_planted <date>, longitude <dbl>,
    ## #   latitude <dbl>, trunk_thickness <fct>
…
    ## `summarise()` has grouped output by 'neighbourhood_name'. You can override
    ## using the `.groups` argument.

``` r
diameter_summary_stats
```

    ## # A tibble: 44 × 5
    ## # Groups:   neighbourhood_name [22]
    ##    neighbourhood_name  mean  range median    sd
    ##    <chr>              <dbl>  <dbl>  <dbl> <dbl>
    ##  1 ARBUTUS-RIDGE      11.9    0      10    8.67
    ##  2 ARBUTUS-RIDGE      11.9   62      10    8.67
    ##  3 DOWNTOWN            7.45   1       6    5.12
    ##  4 DOWNTOWN            7.45 151       6    5.12
    ##  5 DUNBAR-SOUTHLANDS  13.9    0      12   11.0 
    ##  6 DUNBAR-SOUTHLANDS  13.9  305      12   11.0 
    ##  7 FAIRVIEW           10.6    1.25    9    7.98
    ##  8 FAIRVIEW           10.6   99       9    7.98
    ##  9 GRANDVIEW-WOODLAND 11.4    0       8.5  9.12
    ## 10 GRANDVIEW-WOODLAND 11.4   63       8.5  9.12
    ## # ℹ 34 more rows
…
### 2.1 (2 points)

Based on the definition above, can you identify if your data is tidy or
untidy? Go through all your columns, or if you have \>8 variables, just
pick 8, and explain whether the data is untidy or tidy.

<!--------------------------- Start your work below --------------------------->

``` r
vancouver_trees
```

    ## # A tibble: 146,611 × 20
    ##    tree_id civic_number std_street    genus_name species_name cultivar_name  
    ##      <dbl>        <dbl> <chr>         <chr>      <chr>        <chr>          
    ##  1  149556          494 W 58TH AV     ULMUS      AMERICANA    BRANDON        
    ##  2  149563          450 W 58TH AV     ZELKOVA    SERRATA      <NA>           
    ##  3  149579         4994 WINDSOR ST    STYRAX     JAPONICA     <NA>           
    ##  4  149590          858 E 39TH AV     FRAXINUS   AMERICANA    AUTUMN APPLAUSE
    ##  5  149604         5032 WINDSOR ST    ACER       CAMPESTRE    <NA>           
    ##  6  149616          585 W 61ST AV     PYRUS      CALLERYANA   CHANTICLEER    
    ##  7  149617         4909 SHERBROOKE ST ACER       PLATANOIDES  COLUMNARE      
    ##  8  149618         4925 SHERBROOKE ST ACER       PLATANOIDES  COLUMNARE      
    ##  9  149619         4969 SHERBROOKE ST ACER       PLATANOIDES  COLUMNARE      
    ## 10  149625          720 E 39TH AV     FRAXINUS   AMERICANA    AUTUMN APPLAUSE
    ## # ℹ 146,601 more rows
    ## # ℹ 14 more variables: common_name <chr>, assigned <chr>, root_barrier <chr>,
    ## #   plant_area <chr>, on_street_block <dbl>, on_street <chr>,
    ## #   neighbourhood_name <chr>, street_side_name <chr>, height_range_id <dbl>,
    ## #   diameter <dbl>, curb <chr>, date_planted <date>, longitude <dbl>,
    ## #   latitude <dbl>
…
Be sure to explain your reasoning for this task. Show us the “before”
and “after”.

<!--------------------------- Start your work below --------------------------->

### Untidying the vancouver_trees dataset by combining latitude and longitude into one column and genus and species into another column

``` r
# before untidying

vancouver_trees
```

    ## # A tibble: 146,611 × 20
    ##    tree_id civic_number std_street    genus_name species_name cultivar_name  
    ##      <dbl>        <dbl> <chr>         <chr>      <chr>        <chr>          
    ##  1  149556          494 W 58TH AV     ULMUS      AMERICANA    BRANDON        
    ##  2  149563          450 W 58TH AV     ZELKOVA    SERRATA      <NA>           
    ##  3  149579         4994 WINDSOR ST    STYRAX     JAPONICA     <NA>           
    ##  4  149590          858 E 39TH AV     FRAXINUS   AMERICANA    AUTUMN APPLAUSE
    ##  5  149604         5032 WINDSOR ST    ACER       CAMPESTRE    <NA>           
    ##  6  149616          585 W 61ST AV     PYRUS      CALLERYANA   CHANTICLEER    
    ##  7  149617         4909 SHERBROOKE ST ACER       PLATANOIDES  COLUMNARE      
    ##  8  149618         4925 SHERBROOKE ST ACER       PLATANOIDES  COLUMNARE      
    ##  9  149619         4969 SHERBROOKE ST ACER       PLATANOIDES  COLUMNARE      
    ## 10  149625          720 E 39TH AV     FRAXINUS   AMERICANA    AUTUMN APPLAUSE
    ## # ℹ 146,601 more rows
    ## # ℹ 14 more variables: common_name <chr>, assigned <chr>, root_barrier <chr>,
    ## #   plant_area <chr>, on_street_block <dbl>, on_street <chr>,
    ## #   neighbourhood_name <chr>, street_side_name <chr>, height_range_id <dbl>,
    ## #   diameter <dbl>, curb <chr>, date_planted <date>, longitude <dbl>,
    ## #   latitude <dbl>

``` r
# we will combine columns and their values using the tidyr function unite()

vancouver_trees_latin_name <- vancouver_trees %>%
  unite(latin_name, c(genus_name, species_name), sep = " ")

vancouver_trees_latin_name
```

    ## # A tibble: 146,611 × 19
    ##    tree_id civic_number std_street latin_name cultivar_name common_name assigned
    ##      <dbl>        <dbl> <chr>      <chr>      <chr>         <chr>       <chr>   
    ##  1  149556          494 W 58TH AV  ULMUS AME… BRANDON       BRANDON ELM N       
    ##  2  149563          450 W 58TH AV  ZELKOVA S… <NA>          JAPANESE Z… N       
    ##  3  149579         4994 WINDSOR ST STYRAX JA… <NA>          JAPANESE S… N       
    ##  4  149590          858 E 39TH AV  FRAXINUS … AUTUMN APPLA… AUTUMN APP… Y       
    ##  5  149604         5032 WINDSOR ST ACER CAMP… <NA>          HEDGE MAPLE N       
    ##  6  149616          585 W 61ST AV  PYRUS CAL… CHANTICLEER   CHANTICLEE… N       
    ##  7  149617         4909 SHERBROOK… ACER PLAT… COLUMNARE     COLUMNAR N… N       
    ##  8  149618         4925 SHERBROOK… ACER PLAT… COLUMNARE     COLUMNAR N… N       
    ##  9  149619         4969 SHERBROOK… ACER PLAT… COLUMNARE     COLUMNAR N… N       
    ## 10  149625          720 E 39TH AV  FRAXINUS … AUTUMN APPLA… AUTUMN APP… N       
    ## # ℹ 146,601 more rows
    ## # ℹ 12 more variables: root_barrier <chr>, plant_area <chr>,
    ## #   on_street_block <dbl>, on_street <chr>, neighbourhood_name <chr>,
    ## #   street_side_name <chr>, height_range_id <dbl>, diameter <dbl>, curb <chr>,
    ## #   date_planted <date>, longitude <dbl>, latitude <dbl>

``` r
vancouver_trees_latin_name_latlong <- vancouver_trees_latin_name %>%
  unite(latlong, c(latitude, longitude), sep = ", ")

vancouver_trees_latin_name_latlong
```

    ## # A tibble: 146,611 × 18
    ##    tree_id civic_number std_street latin_name cultivar_name common_name assigned
    ##      <dbl>        <dbl> <chr>      <chr>      <chr>         <chr>       <chr>   
    ##  1  149556          494 W 58TH AV  ULMUS AME… BRANDON       BRANDON ELM N       
    ##  2  149563          450 W 58TH AV  ZELKOVA S… <NA>          JAPANESE Z… N       
    ##  3  149579         4994 WINDSOR ST STYRAX JA… <NA>          JAPANESE S… N       
    ##  4  149590          858 E 39TH AV  FRAXINUS … AUTUMN APPLA… AUTUMN APP… Y       
    ##  5  149604         5032 WINDSOR ST ACER CAMP… <NA>          HEDGE MAPLE N       
    ##  6  149616          585 W 61ST AV  PYRUS CAL… CHANTICLEER   CHANTICLEE… N       
    ##  7  149617         4909 SHERBROOK… ACER PLAT… COLUMNARE     COLUMNAR N… N       
    ##  8  149618         4925 SHERBROOK… ACER PLAT… COLUMNARE     COLUMNAR N… N       
    ##  9  149619         4969 SHERBROOK… ACER PLAT… COLUMNARE     COLUMNAR N… N       
    ## 10  149625          720 E 39TH AV  FRAXINUS … AUTUMN APPLA… AUTUMN APP… N       
    ## # ℹ 146,601 more rows
    ## # ℹ 11 more variables: root_barrier <chr>, plant_area <chr>,
    ## #   on_street_block <dbl>, on_street <chr>, neighbourhood_name <chr>,
    ## #   street_side_name <chr>, height_range_id <dbl>, diameter <dbl>, curb <chr>,
    ## #   date_planted <date>, latlong <chr>

``` r
# after untidying

vancouver_trees_latin_name_latlong
```

    ## # A tibble: 146,611 × 18
    ##    tree_id civic_number std_street latin_name cultivar_name common_name assigned
    ##      <dbl>        <dbl> <chr>      <chr>      <chr>         <chr>       <chr>   
    ##  1  149556          494 W 58TH AV  ULMUS AME… BRANDON       BRANDON ELM N       
    ##  2  149563          450 W 58TH AV  ZELKOVA S… <NA>          JAPANESE Z… N       
    ##  3  149579         4994 WINDSOR ST STYRAX JA… <NA>          JAPANESE S… N       
    ##  4  149590          858 E 39TH AV  FRAXINUS … AUTUMN APPLA… AUTUMN APP… Y       
    ##  5  149604         5032 WINDSOR ST ACER CAMP… <NA>          HEDGE MAPLE N       
    ##  6  149616          585 W 61ST AV  PYRUS CAL… CHANTICLEER   CHANTICLEE… N       
    ##  7  149617         4909 SHERBROOK… ACER PLAT… COLUMNARE     COLUMNAR N… N       
    ##  8  149618         4925 SHERBROOK… ACER PLAT… COLUMNARE     COLUMNAR N… N       
    ##  9  149619         4969 SHERBROOK… ACER PLAT… COLUMNARE     COLUMNAR N… N       
    ## 10  149625          720 E 39TH AV  FRAXINUS … AUTUMN APPLA… AUTUMN APP… N       
    ## # ℹ 146,601 more rows
    ## # ℹ 11 more variables: root_barrier <chr>, plant_area <chr>,
    ## #   on_street_block <dbl>, on_street <chr>, neighbourhood_name <chr>,
    ## #   street_side_name <chr>, height_range_id <dbl>, diameter <dbl>, curb <chr>,
    ## #   date_planted <date>, latlong <chr>
…
